{
  "page": 1,
  "per_page": 30,
  "photos": [
      {
          "id": 31454160,
          "width": 6240,
          "height": 4160,
          "url": "https://www.pexels.com/photo/quiet-urban-street-scene-in-tokyo-japan-31454160/",
          "photographer": "Reinaldo Simoes",
          "photographer_url": "https://www.pexels.com/@reinaldo",
          "photographer_id": 663431362,
          "avg_color": "#565656",
          "src": {
              "original": "https://images.pexels.com/photos/31454160/pexels-photo-31454160.jpeg",
              "large2x": "https://images.pexels.com/photos/31454160/pexels-photo-31454160.jpeg?auto=compress\u0026cs=tinysrgb\u0026dpr=2\u0026h=650\u0026w=940",
              "large": "https://images.pexels.com/photos/31454160/pexels-photo-31454160.jpeg?auto=compress\u0026cs=tinysrgb\u0026h=650\u0026w=940",
              "medium": "https://images.pexels.com/photos/31454160/pexels-photo-31454160.jpeg?auto=compress\u0026cs=tinysrgb\u0026h=350",
              "small": "https://images.pexels.com/photos/31454160/pexels-photo-31454160.jpeg?auto=compress\u0026cs=tinysrgb\u0026h=130",
              "portrait": "https://images.pexels.com/photos/31454160/pexels-photo-31454160.jpeg?auto=compress\u0026cs=tinysrgb\u0026fit=crop\u0026h=1200\u0026w=800",
              "landscape": "https://images.pexels.com/photos/31454160/pexels-photo-31454160.jpeg?auto=compress\u0026cs=tinysrgb\u0026fit=crop\u0026h=627\u0026w=1200",
              "tiny": "https://images.pexels.com/photos/31454160/pexels-photo-31454160.jpeg?auto=compress\u0026cs=tinysrgb\u0026dpr=1\u0026fit=crop\u0026h=200\u0026w=280"
          },
          "liked": false,
          "alt": "Free stock photo of japan, street, tokyo"
      },
      {
          "id": 31446266,
          "width": 3536,
          "height": 5296,
          "url": "https://www.pexels.com/photo/minimalist-interior-with-books-and-shelves-31446266/",
          "photographer": "Little forest 작은 숲",
          "photographer_url": "https://www.pexels.com/@little-forest-2150377525",
          "photographer_id": 2150377525,
          "avg_color": "#898375",
          "src": {
              "original": "https://images.pexels.com/photos/31446266/pexels-photo-31446266.jpeg",
              "large2x": "https://images.pexels.com/photos/31446266/pexels-photo-31446266.jpeg?auto=compress\u0026cs=tinysrgb\u0026dpr=2\u0026h=650\u0026w=940",
              "large": "https://images.pexels.com/photos/31446266/pexels-photo-31446266.jpeg?auto=compress\u0026cs=tinysrgb\u0026h=650\u0026w=940",
              "medium": "https://images.pexels.com/photos/31446266/pexels-photo-31446266.jpeg?auto=compress\u0026cs=tinysrgb\u0026h=350",
              "small": "https://images.pexels.com/photos/31446266/pexels-photo-31446266.jpeg?auto=compress\u0026cs=tinysrgb\u0026h=130",
              "portrait": "https://images.pexels.com/photos/31446266/pexels-photo-31446266.jpeg?auto=compress\u0026cs=tinysrgb\u0026fit=crop\u0026h=1200\u0026w=800",
              "landscape": "https://images.pexels.com/photos/31446266/pexels-photo-31446266.jpeg?auto=compress\u0026cs=tinysrgb\u0026fit=crop\u0026h=627\u0026w=1200",
              "tiny": "https://images.pexels.com/photos/31446266/pexels-photo-31446266.jpeg?auto=compress\u0026cs=tinysrgb\u0026dpr=1\u0026fit=crop\u0026h=200\u0026w=280"
          },
          "liked": false,
          "alt": "Stylish minimalist interior featuring books on wall-mounted shelves and modern wooden furniture."
      },
      {
          "id": 31420620,
          "width": 5661,
          "height": 3903,
          "url": "https://www.pexels.com/photo/modern-hotel-exterior-sign-in-urban-setting-31420620/",
          "photographer": "Boris Dahm",
          "photographer_url": "https://www.pexels.com/@boris-dahm-2150922402",
          "photographer_id": 2150922402,
          "avg_color": "#A6CBDB",
          "src": {
              "original": "https://images.pexels.com/photos/31420620/pexels-photo-31420620.jpeg",
              "large2x": "https://images.pexels.com/photos/31420620/pexels-photo-31420620.jpeg?auto=compress\u0026cs=tinysrgb\u0026dpr=2\u0026h=650\u0026w=940",
              "large": "https://images.pexels.com/photos/31420620/pexels-photo-31420620.jpeg?auto=compress\u0026cs=tinysrgb\u0026h=650\u0026w=940",
              "medium": "https://images.pexels.com/photos/31420620/pexels-photo-31420620.jpeg?auto=compress\u0026cs=tinysrgb\u0026h=350",
              "small": "https://images.pexels.com/photos/31420620/pexels-photo-31420620.jpeg?auto=compress\u0026cs=tinysrgb\u0026h=130",
              "portrait": "https://images.pexels.com/photos/31420620/pexels-photo-31420620.jpeg?auto=compress\u0026cs=tinysrgb\u0026fit=crop\u0026h=1200\u0026w=800",
              "landscape": "https://images.pexels.com/photos/31420620/pexels-photo-31420620.jpeg?auto=compress\u0026cs=tinysrgb\u0026fit=crop\u0026h=627\u0026w=1200",
              "tiny": "https://images.pexels.com/photos/31420620/pexels-photo-31420620.jpeg?auto=compress\u0026cs=tinysrgb\u0026dpr=1\u0026fit=crop\u0026h=200\u0026w=280"
          },
          "liked": false,
          "alt": "Brightly lit hotel sign with blue tiles under a clear sky, showcasing modern architecture."
      },
      {
          "id": 31418368,
          "width": 2160,
          "height": 2700,
          "url": "https://www.pexels.com/photo/moss-covered-buddha-statues-in-kyoto-japan-31418368/",
          "photographer": "Daniel Gubó",
          "photographer_url": "https://www.pexels.com/@daniel-gubo-2150904441",
          "photographer_id": 2150904441,
          "avg_color": "#61654E",
          "src": {
              "original": "https://images.pexels.com/photos/31418368/pexels-photo-31418368.jpeg",
              "large2x": "https://images.pexels.com/photos/31418368/pexels-photo-31418368.jpeg?auto=compress\u0026cs=tinysrgb\u0026dpr=2\u0026h=650\u0026w=940",
              "large": "https://images.pexels.com/photos/31418368/pexels-photo-31418368.jpeg?auto=compress\u0026cs=tinysrgb\u0026h=650\u0026w=940",
              "medium": "https://images.pexels.com/photos/31418368/pexels-photo-31418368.jpeg?auto=compress\u0026cs=tinysrgb\u0026h=350",
              "small": "https://images.pexels.com/photos/31418368/pexels-photo-31418368.jpeg?auto=compress\u0026cs=tinysrgb\u0026h=130",
              "portrait": "https://images.pexels.com/photos/31418368/pexels-photo-31418368.jpeg?auto=compress\u0026cs=tinysrgb\u0026fit=crop\u0026h=1200\u0026w=800",
              "landscape": "https://images.pexels.com/photos/31418368/pexels-photo-31418368.jpeg?auto=compress\u0026cs=tinysrgb\u0026fit=crop\u0026h=627\u0026w=1200",
              "tiny": "https://images.pexels.com/photos/31418368/pexels-photo-31418368.jpeg?auto=compress\u0026cs=tinysrgb\u0026dpr=1\u0026fit=crop\u0026h=200\u0026w=280"
          },
          "liked": false,
          "alt": "Free stock photo of asian temple, authentic japan, buddha"
      },
      {
          "id": 31418496,
          "width": 2160,
          "height": 2700,
          "url": "https://www.pexels.com/photo/quaint-street-in-shinjuku-city-tokyo-31418496/",
          "photographer": "Daniel Gubó",
          "photographer_url": "https://www.pexels.com/@daniel-gubo-2150904441",
          "photographer_id": 2150904441,
          "avg_color": "#777569",
          "src": {
              "original": "https://images.pexels.com/photos/31418496/pexels-photo-31418496.jpeg",
              "large2x": "https://images.pexels.com/photos/31418496/pexels-photo-31418496.jpeg?auto=compress\u0026cs=tinysrgb\u0026dpr=2\u0026h=650\u0026w=940",
              "large": "https://images.pexels.com/photos/31418496/pexels-photo-31418496.jpeg?auto=compress\u0026cs=tinysrgb\u0026h=650\u0026w=940",
              "medium": "https://images.pexels.com/photos/31418496/pexels-photo-31418496.jpeg?auto=compress\u0026cs=tinysrgb\u0026h=350",
              "small": "https://images.pexels.com/photos/31418496/pexels-photo-31418496.jpeg?auto=compress\u0026cs=tinysrgb\u0026h=130",
              "portrait": "https://images.pexels.com/photos/31418496/pexels-photo-31418496.jpeg?auto=compress\u0026cs=tinysrgb\u0026fit=crop\u0026h=1200\u0026w=800",
              "landscape": "https://images.pexels.com/photos/31418496/pexels-photo-31418496.jpeg?auto=compress\u0026cs=tinysrgb\u0026fit=crop\u0026h=627\u0026w=1200",
              "tiny": "https://images.pexels.com/photos/31418496/pexels-photo-31418496.jpeg?auto=compress\u0026cs=tinysrgb\u0026dpr=1\u0026fit=crop\u0026h=200\u0026w=280"
          },
          "liked": false,
          "alt": "Explore the charming streets of Shinjuku City, Tokyo, showcasing traditional and modern architecture."
      }
  ],
  "total_results": 8000,
  "next_page": "https://api.pexels.com/v1/curated?page=2\u0026per_page=30"
}
